{
    "name": "InputSystem",
    "maps": [
        {
            "name": "Player",
            "id": "21f9a27d-4fe8-481a-bd56-01692e6bac4f",
            "actions": [
                {
                    "name": "Movement",
                    "type": "PassThrough",
                    "id": "8648d0c7-d332-4c48-8735-9d0be8b349a4",
                    "expectedControlType": "Vector2",
                    "processors": "",
                    "interactions": ""
                },
                {
                    "name": "Look",
                    "type": "PassThrough",
                    "id": "67f266b9-86f7-4b84-8474-20e9a266f459",
                    "expectedControlType": "Vector2",
                    "processors": "",
                    "interactions": ""
                },
                {
                    "name": "Jump",
                    "type": "Button",
                    "id": "eff12ea6-0d3a-4058-88f2-22fbacd0185d",
                    "expectedControlType": "Button",
                    "processors": "",
                    "interactions": ""
                },
                {
                    "name": "Run",
                    "type": "Button",
                    "id": "3058fd96-24ee-4215-94e8-c407f84b46f0",
                    "expectedControlType": "Button",
                    "processors": "",
                    "interactions": ""
                },
                {
                    "name": "Interact",
                    "type": "Button",
                    "id": "f4a404cf-9e5c-42e4-8d1b-b6ae0adda6c6",
                    "expectedControlType": "Button",
                    "processors": "",
                    "interactions": ""
                }
            ],
            "bindings": [
                {
                    "name": "WASD",
                    "id": "054e2da4-3b3f-4dac-88b0-ceab9a333dd8",
                    "path": "2DVector",
                    "interactions": "",
                    "processors": "",
                    "groups": "",
                    "action": "Movement",
                    "isComposite": true,
                    "isPartOfComposite": false
                },
                {
                    "name": "up",
                    "id": "67b2db9a-c2ce-4a37-a47a-9a678e4f1026",
                    "path": "<Keyboard>/w",
                    "interactions": "",
                    "processors": "",
                    "groups": "",
                    "action": "Movement",
                    "isComposite": false,
                    "isPartOfComposite": true
                },
                {
                    "name": "down",
                    "id": "ec364895-022d-4bc1-b22b-134da642f03d",
                    "path": "<Keyboard>/s",
                    "interactions": "",
                    "processors": "",
                    "groups": "",
                    "action": "Movement",
                    "isComposite": false,
                    "isPartOfComposite": true
                },
                {
                    "name": "left",
                    "id": "c5bf579b-c612-413d-93c8-8b2b85f66186",
                    "path": "<Keyboard>/a",
                    "interactions": "",
                    "processors": "",
                    "groups": "",
                    "action": "Movement",
                    "isComposite": false,
                    "isPartOfComposite": true
                },
                {
                    "name": "right",
                    "id": "2579a7f5-414d-479f-be0c-c840b8a4d3d1",
                    "path": "<Keyboard>/d",
                    "interactions": "",
                    "processors": "",
                    "groups": "",
                    "action": "Movement",
                    "isComposite": false,
                    "isPartOfComposite": true
                },
                {
                    "name": "",
                    "id": "b42dafd8-d69c-4ab8-8ac2-be8c215cd6a2",
                    "path": "<Mouse>/delta",
                    "interactions": "",
                    "processors": "",
                    "groups": "",
                    "action": "Look",
                    "isComposite": false,
                    "isPartOfComposite": false
                },
                {
                    "name": "",
                    "id": "9c24da9f-ae9d-45a1-b8e7-8c9af5f5a89f",
                    "path": "<Keyboard>/space",
                    "interactions": "",
                    "processors": "",
                    "groups": "",
                    "action": "Jump",
                    "isComposite": false,
                    "isPartOfComposite": false
                },
                {
                    "name": "",
                    "id": "415936f9-b1d2-4453-9d6f-be3a73e72135",
                    "path": "<Keyboard>/leftShift",
                    "interactions": "",
                    "processors": "",
                    "groups": "",
                    "action": "Run",
                    "isComposite": false,
                    "isPartOfComposite": false
                },
                {
                    "name": "",
                    "id": "b2760221-c2eb-4c90-aff7-6da949426abb",
                    "path": "<Keyboard>/e",
                    "interactions": "",
                    "processors": "",
                    "groups": "",
                    "action": "Interact",
                    "isComposite": false,
                    "isPartOfComposite": false
                }
            ]
        }
    ],
    "controlSchemes": []
}